{
	"info": {
		"_postman_id": "59007158-e6b6-43ae-893a-a4cebbfcf775",
		"name": "booking-request",
		"schema": "https://schema.getpostman.com/json/collection/v2.1.0/collection.json"
	},
	"item": [
		{
			"name": "login",
			"event": [
				{
					"listen": "test",
					"script": {
						"id": "ddf0c8d0-aefb-4b13-8210-9df7757e414f",
						"exec": [
							"var tokenValue, roleIDValue;",
							"var jsonData = JSON.parse(responseBody);",
							"tokenValue = jsonData.result[0].token;",
							"",
							"//roleIDValue = jsonData.result[0].roleCenters[1].roleId;",
							"",
							"console.log(\"After Updating token\"+tokenValue);",
							"//console.log(\"After Updating roleId\"+roleIDValue);",
							"",
							"postman.setEnvironmentVariable('token',tokenValue);",
							"//postman.setEnvironmentVariable('roleID',roleIDValue);",
							"",
							"",
							"var errorValue, roleIDValue;",
							"var jsonData = JSON.parse(responseBody);",
							"errorValue = jsonData.error;",
							"",
							"if(errorValue === 0)",
							"{",
							"    tests[\"Login API Works\"] = true;",
							"}",
							"else",
							"{",
							"    tests[\"Issue with Login API\"] = false;",
							"}",
							"",
							"",
							"tests[\"Status code  is 200 for Login API\"] = responseCode.code ==200;",
							"",
							"var message = jsonData.message;",
							"console.log(\"After Updating message :\"+message);",
							"",
							"",
							"",
							"pm.test(\"Response time is less than 2000ms for Login API\", function () {",
							"    pm.expect(pm.response.responseTime).to.be.below(2000);",
							"});"
						],
						"type": "text/javascript"
					}
				}
			],
			"request": {
				"method": "POST",
				"header": [],
				"body": {
					"mode": "raw",
					"raw": ""
				},
				"url": {
					"raw": "{{baseUrl}}v2/suppliers/login?passwd=password&primaryContact=6547567567",
					"host": [
						"{{baseUrl}}v2"
					],
					"path": [
						"suppliers",
						"login"
					],
					"query": [
						{
							"key": "passwd",
							"value": "password"
						},
						{
							"key": "primaryContact",
							"value": "6547567567"
						}
					]
				}
			},
			"response": []
		},
		{
			"name": "pre-booking-request",
			"event": [
				{
					"listen": "test",
					"script": {
						"id": "4a6654dc-3efc-4140-afae-a3bab4f5ae96",
						"exec": [
							"var errorValue, id;",
							"var jsonData = JSON.parse(responseBody);",
							"errorValue = jsonData.error;",
							"",
							"if(errorValue === 0)",
							"{",
							"    tests[\"Booking Confirmation API Works\"] = true;",
							"}",
							"else",
							"{",
							"    tests[\"Issue with Booking Confirmation API\"] = false;",
							"}",
							"",
							"tests[\"Status code  is 200 for Booking Confirmation API\"] = responseCode.code ==200;",
							"",
							"pm.test(\"Response time is less than 2000ms for Booking Confirmation API\", function () {",
							"    pm.expect(pm.response.responseTime).to.be.below(2000);",
							"});",
							"",
							"/*id = jsonData.result[0].toUserId;",
							"",
							"console.log(\"id is \"+id);",
							"pm.variables.set(\"id\", id);*/",
							""
						],
						"type": "text/javascript"
					}
				},
				{
					"listen": "prerequest",
					"script": {
						"id": "33d46653-2ee0-41b1-bacc-fb1565aaf3e0",
						"exec": [
							"var now = new Date();\r",
							"var startOfDay = new Date(now.getFullYear(), now.getMonth(), now.getDate());\r",
							"var timestamp = startOfDay / 1000;\r",
							"\r",
							"pm.variables.set(\"timestamp\", timestamp);\r",
							"\r",
							"console.log(\"timestamp is \"+timestamp);\r",
							"\r",
							""
						],
						"type": "text/javascript"
					}
				}
			],
			"request": {
				"method": "POST",
				"header": [
					{
						"key": "token",
						"value": "W0JAMWQyNDRlNzg",
						"type": "text"
					},
					{
						"key": "roleid",
						"value": "57dbc99e631877578b4806f7",
						"type": "text"
					}
				],
				"body": {
					"mode": "formdata",
					"formdata": [
						{
							"key": "primaryContact",
							"value": "6026631626",
							"type": "text"
						},
						{
							"key": "name",
							"value": "POSTMAN",
							"type": "text"
						},
						{
							"key": "amount",
							"value": "100",
							"type": "text"
						},
						{
							"key": "email",
							"value": "S1V1@MAIL.COM",
							"type": "text"
						},
						{
							"key": "offlinePaymentModeComment",
							"value": "NA,txn:NA",
							"type": "text"
						},
						{
							"key": "centerId",
							"value": "5bbc3c73f0c469099e548950",
							"type": "text"
						},
						{
							"key": "offlinePaymentMode",
							"value": "payTm",
							"type": "text"
						},
						{
							"key": "arrivalTime",
							"value": "{{timestamp}}",
							"type": "text"
						},
						{
							"key": "token",
							"value": "{{token}}",
							"type": "text"
						},
						{
							"key": "platForm",
							"value": "web",
							"type": "text"
						},
						{
							"key": "paymentType",
							"value": "pre_booking",
							"type": "text"
						},
						{
							"key": "sharing",
							"value": "1",
							"type": "text"
						},
						{
							"key": "paymentMode",
							"value": "offline",
							"type": "text"
						}
					]
				},
				"url": {
					"raw": "{{baseUrl}}supplier/payments/pre_booking/initiate?token={{token}}&roleid=57dbc99e631877578b4806f7",
					"host": [
						"{{baseUrl}}supplier"
					],
					"path": [
						"payments",
						"pre_booking",
						"initiate"
					],
					"query": [
						{
							"key": "token",
							"value": "{{token}}"
						},
						{
							"key": "roleid",
							"value": "57dbc99e631877578b4806f7"
						}
					]
				}
			},
			"response": []
		},
		{
			"name": "booking-request",
			"event": [
				{
					"listen": "test",
					"script": {
						"id": "d5321a1d-5e9d-44e3-949f-c871208772b3",
						"exec": [
							"var jsonData = JSON.parse(responseBody);",
							"var errorValue, id;",
							"id = jsonData.result[0].preBooking[0].id;",
							"",
							"console.log(\"id is \"+id);",
							"id = id.toString();",
							"postman.setEnvironmentVariable('id',id);",
							""
						],
						"type": "text/javascript"
					}
				},
				{
					"listen": "prerequest",
					"script": {
						"id": "13e3b45d-89b8-43d7-b329-323069c52338",
						"exec": [
							"\r",
							""
						],
						"type": "text/javascript"
					}
				}
			],
			"request": {
				"method": "GET",
				"header": [
					{
						"key": "token",
						"value": "{{token}}",
						"type": "text"
					},
					{
						"key": "roleid",
						"value": "57dbc99e631877578b4806f7",
						"type": "text"
					}
				],
				"body": {
					"mode": "raw",
					"raw": ""
				},
				"url": {
					"raw": "{{baseUrl}}api/v3/preBooking/fetch?token={{token}}&centerIds=5bbc3c73f0c469099e548950",
					"host": [
						"{{baseUrl}}api"
					],
					"path": [
						"v3",
						"preBooking",
						"fetch"
					],
					"query": [
						{
							"key": "token",
							"value": "{{token}}"
						},
						{
							"key": "centerIds",
							"value": "5bbc3c73f0c469099e548950"
						}
					]
				}
			},
			"response": []
		},
		{
			"name": "pre-booking-request-cancel",
			"event": [
				{
					"listen": "test",
					"script": {
						"id": "4a6654dc-3efc-4140-afae-a3bab4f5ae96",
						"exec": [
							"var errorValue, roleIDValue;",
							"var jsonData = JSON.parse(responseBody);",
							"errorValue = jsonData.error;",
							"",
							"if(errorValue === 0)",
							"{",
							"    tests[\"Booking Cancel API Works\"] = true;",
							"}",
							"else",
							"{",
							"    tests[\"Issue with Booking Cancel API\"] = false;",
							"}",
							"",
							"tests[\"Status code  is 200 for Booking Cancel API\"] = responseCode.code ==200;",
							"",
							"pm.test(\"Response time is less than 2000ms for Booking Cancel API\", function () {",
							"    pm.expect(pm.response.responseTime).to.be.below(2000);",
							"});"
						],
						"type": "text/javascript"
					}
				},
				{
					"listen": "prerequest",
					"script": {
						"id": "33d46653-2ee0-41b1-bacc-fb1565aaf3e0",
						"exec": [
							"var now = new Date();\r",
							"var startOfDay = new Date(now.getFullYear(), now.getMonth(), now.getDate());\r",
							"var timestamp = startOfDay / 1000;\r",
							"\r",
							"pm.variables.set(\"timestamp\", timestamp);\r",
							"\r",
							"console.log(\"timestamp is \"+timestamp);\r",
							"\r",
							""
						],
						"type": "text/javascript"
					}
				}
			],
			"request": {
				"method": "POST",
				"header": [
					{
						"key": "roleId",
						"value": "57dbc99e631877578b4806f7",
						"type": "text"
					},
					{
						"key": "token",
						"value": "{{token}}",
						"type": "text"
					}
				],
				"body": {
					"mode": "formdata",
					"formdata": [
						{
							"key": "token",
							"value": "{{token}}",
							"type": "text"
						},
						{
							"key": "id",
							"value": "{{id}}",
							"type": "text"
						},
						{
							"key": "centerId",
							"value": "5bbc3c73f0c469099e548950",
							"type": "text"
						},
						{
							"key": "comment",
							"value": "vv",
							"type": "text"
						},
						{
							"key": "bookingType",
							"value": "preBooking",
							"type": "text"
						}
					]
				},
				"url": {
					"raw": "{{baseUrl}}api/v1/supplier/pre_booking/cancel",
					"host": [
						"{{baseUrl}}api"
					],
					"path": [
						"v1",
						"supplier",
						"pre_booking",
						"cancel"
					]
				}
			},
			"response": []
		}
	]
}