{
	"info": {
		"_postman_id": "97c45e8e-d65c-4a45-b4ee-c9b0c3930cf9",
		"name": "exit-form",
		"schema": "https://schema.getpostman.com/json/collection/v2.1.0/collection.json"
	},
	"item": [
		{
			"name": "save-details-from-pm",
			"request": {
				"method": "POST",
				"header": [],
				"body": {
					"mode": "raw",
					"raw": ""
				},
				"url": {
					"raw": "{{baseUrl}}checkout/supplier/exitForm?roleId=57dbc99e631877578b4806f7&token=W0JAMjI3NTczMWU&tenantId=593e4904fd1cf74c9354d06f&checkoutDate=11-JAN-2019&checkoutTime=10:00:45&informedCT=true&damagedItems=&reasonOfExit=Problem with Wifi / Housekeeping / Parking&relocatedCity=Chennai&comments=Comments are not passed&missingItems=&additionalCharges=Electricity,Parking",
					"host": [
						"{{baseUrl}}checkout"
					],
					"path": [
						"supplier",
						"exitForm"
					],
					"query": [
						{
							"key": "roleId",
							"value": "57dbc99e631877578b4806f7"
						},
						{
							"key": "token",
							"value": "W0JAMjI3NTczMWU"
						},
						{
							"key": "tenantId",
							"value": "593e4904fd1cf74c9354d06f"
						},
						{
							"key": "checkoutDate",
							"value": "11-JAN-2019"
						},
						{
							"key": "checkoutTime",
							"value": "10:00:45"
						},
						{
							"key": "informedCT",
							"value": "true"
						},
						{
							"key": "damagedItems",
							"value": ""
						},
						{
							"key": "reasonOfExit",
							"value": "Problem with Wifi / Housekeeping / Parking"
						},
						{
							"key": "relocatedCity",
							"value": "Chennai"
						},
						{
							"key": "comments",
							"value": "Comments are not passed"
						},
						{
							"key": "missingItems",
							"value": ""
						},
						{
							"key": "additionalCharges",
							"value": "Electricity,Parking"
						}
					]
				}
			},
			"response": []
		},
		{
			"name": "upload-damaged-items",
			"request": {
				"method": "POST",
				"header": [],
				"body": {
					"mode": "formdata",
					"formdata": [
						{
							"key": "mirror",
							"type": "file",
							"src": ""
						},
						{
							"key": "mattress",
							"type": "file",
							"src": ""
						},
						{
							"key": "TV",
							"type": "file",
							"src": ""
						}
					]
				},
				"url": {
					"raw": "{{baseUrl}}api/agent/verification/uploadVerificationDocument?token={{token}}&tenantId=593e4904fd1cf74c9354d06f&imageType=EXIT_FORM&roleId=57dbc99e631877578b4806f7",
					"host": [
						"{{baseUrl}}api"
					],
					"path": [
						"agent",
						"verification",
						"uploadVerificationDocument"
					],
					"query": [
						{
							"key": "token",
							"value": "{{token}}"
						},
						{
							"key": "tenantId",
							"value": "593e4904fd1cf74c9354d06f"
						},
						{
							"key": "imageType",
							"value": "EXIT_FORM"
						},
						{
							"key": "roleId",
							"value": "57dbc99e631877578b4806f7"
						}
					]
				}
			},
			"response": []
		},
		{
			"name": "settlement-details",
			"protocolProfileBehavior": {
				"disableBodyPruning": true
			},
			"request": {
				"method": "GET",
				"header": [],
				"body": {
					"mode": "formdata",
					"formdata": [
						{
							"key": "mirror",
							"value": "",
							"type": "text"
						},
						{
							"key": "mattress",
							"value": "",
							"type": "text"
						},
						{
							"key": "TV",
							"value": "",
							"type": "text"
						}
					]
				},
				"url": {
					"raw": "{{baseUrl}}checkout/supplier/exitForm?roleId=57dbc99e631877578b4806f7&token={{token}}&tenantId=5954d111fd1cf76e1a0cf3df",
					"host": [
						"{{baseUrl}}checkout"
					],
					"path": [
						"supplier",
						"exitForm"
					],
					"query": [
						{
							"key": "roleId",
							"value": "57dbc99e631877578b4806f7"
						},
						{
							"key": "token",
							"value": "{{token}}"
						},
						{
							"key": "tenantId",
							"value": "5954d111fd1cf76e1a0cf3df"
						}
					]
				}
			},
			"response": []
		},
		{
			"name": "exit-form-report-crm",
			"protocolProfileBehavior": {
				"disableBodyPruning": true
			},
			"request": {
				"method": "GET",
				"header": [],
				"body": {
					"mode": "formdata",
					"formdata": [
						{
							"key": "mirror",
							"value": "",
							"type": "text"
						},
						{
							"key": "mattress",
							"value": "",
							"type": "text"
						},
						{
							"key": "TV",
							"value": "",
							"type": "text"
						}
					]
				},
				"url": {
					"raw": "{{baseUrl}}checkout/supplier/exitForm?roleId=57dbc99e631877578b4806f7&token={{token}}&tenantId=5954d111fd1cf76e1a0cf3df",
					"host": [
						"{{baseUrl}}checkout"
					],
					"path": [
						"supplier",
						"exitForm"
					],
					"query": [
						{
							"key": "roleId",
							"value": "57dbc99e631877578b4806f7"
						},
						{
							"key": "token",
							"value": "{{token}}"
						},
						{
							"key": "tenantId",
							"value": "5954d111fd1cf76e1a0cf3df"
						}
					]
				}
			},
			"response": []
		},
		{
			"name": "exit-tenant-old",
			"request": {
				"method": "POST",
				"header": [],
				"body": {
					"mode": "formdata",
					"formdata": [
						{
							"key": "mirror",
							"value": "",
							"type": "text"
						},
						{
							"key": "mattress",
							"value": "",
							"type": "text"
						},
						{
							"key": "TV",
							"value": "",
							"type": "text"
						}
					]
				},
				"url": {
					"raw": "{{baseUrl}}checkout/init/supplier?token={{token}}&tenantId=5c2c66e3f0c46951a6689875",
					"host": [
						"{{baseUrl}}checkout"
					],
					"path": [
						"init",
						"supplier"
					],
					"query": [
						{
							"key": "token",
							"value": "{{token}}"
						},
						{
							"key": "tenantId",
							"value": "5c2c66e3f0c46951a6689875"
						}
					]
				}
			},
			"response": []
		},
		{
			"name": "exit-tenant-new",
			"request": {
				"method": "POST",
				"header": [],
				"body": {},
				"url": {
					"raw": "{{baseUrl}}api/v1/checkout/init/supplier?roleId=57dbc99e631877578b4806f7&token={{token}}&tenantId=58d67ed26193f5071a6ea4a8",
					"host": [
						"{{baseUrl}}api"
					],
					"path": [
						"v1",
						"checkout",
						"init",
						"supplier"
					],
					"query": [
						{
							"key": "roleId",
							"value": "57dbc99e631877578b4806f7"
						},
						{
							"key": "token",
							"value": "{{token}}"
						},
						{
							"key": "tenantId",
							"value": "58d67ed26193f5071a6ea4a8"
						}
					]
				}
			},
			"response": []
		}
	]
}