{
	"info": {
		"_postman_id": "8d11c2ef-f5e1-4074-88af-25b587f8328b",
		"name": "notice-flow",
		"schema": "https://schema.getpostman.com/json/collection/v2.1.0/collection.json"
	},
	"item": [
		{
			"name": "login",
			"event": [
				{
					"listen": "test",
					"script": {
						"id": "ddf0c8d0-aefb-4b13-8210-9df7757e414f",
						"exec": [
							"var tokenValue, roleIDValue;",
							"var jsonData = JSON.parse(responseBody);",
							"tokenValue = jsonData.result[0].token;",
							"",
							"//roleIDValue = jsonData.result[0].roleCenters[1].roleId;",
							"",
							"console.log(\"After Updating token\"+tokenValue);",
							"//console.log(\"After Updating roleId\"+roleIDValue);",
							"",
							"postman.setEnvironmentVariable('token',tokenValue);",
							"//postman.setEnvironmentVariable('roleID',roleIDValue);",
							"",
							"",
							"var errorValue, roleIDValue;",
							"var jsonData = JSON.parse(responseBody);",
							"errorValue = jsonData.error;",
							"",
							"if(errorValue === 0)",
							"{",
							"    tests[\"Login API Works\"] = true;",
							"}",
							"else",
							"{",
							"    tests[\"Issue with Login API\"] = false;",
							"}",
							"",
							"",
							"tests[\"Status code  is 200 for Login API\"] = responseCode.code ==200;",
							"",
							"var message = jsonData.message;",
							"console.log(\"After Updating message :\"+message);",
							"",
							"",
							"",
							"pm.test(\"Response time is less than 2000ms for Login API\", function () {",
							"    pm.expect(pm.response.responseTime).to.be.below(2000);",
							"});"
						],
						"type": "text/javascript"
					}
				}
			],
			"request": {
				"method": "POST",
				"header": [],
				"body": {
					"mode": "raw",
					"raw": ""
				},
				"url": {
					"raw": "{{baseUrl}}v2/suppliers/login?passwd=password&primaryContact=6547567567",
					"host": [
						"{{baseUrl}}v2"
					],
					"path": [
						"suppliers",
						"login"
					],
					"query": [
						{
							"key": "passwd",
							"value": "password"
						},
						{
							"key": "primaryContact",
							"value": "6547567567"
						}
					]
				}
			},
			"response": []
		},
		{
			"name": "mark-on-notice",
			"event": [
				{
					"listen": "test",
					"script": {
						"id": "ddf0c8d0-aefb-4b13-8210-9df7757e414f",
						"exec": [
							"var tokenValue, roleIDValue;",
							"var jsonData = JSON.parse(responseBody);",
							"tokenValue = jsonData.result[0].token;",
							"",
							"//roleIDValue = jsonData.result[0].roleCenters[1].roleId;",
							"",
							"console.log(\"After Updating token\"+tokenValue);",
							"//console.log(\"After Updating roleId\"+roleIDValue);",
							"",
							"postman.setEnvironmentVariable('token',tokenValue);",
							"//postman.setEnvironmentVariable('roleID',roleIDValue);",
							"",
							"",
							"var errorValue, roleIDValue;",
							"var jsonData = JSON.parse(responseBody);",
							"errorValue = jsonData.error;",
							"",
							"if(errorValue === 0)",
							"{",
							"    tests[\"Login API Works\"] = true;",
							"}",
							"else",
							"{",
							"    tests[\"Issue with Login API\"] = false;",
							"}",
							"",
							"",
							"tests[\"Status code  is 200 for Login API\"] = responseCode.code ==200;",
							"",
							"var message = jsonData.message;",
							"console.log(\"After Updating message :\"+message);",
							"",
							"",
							"",
							"pm.test(\"Response time is less than 2000ms for Login API\", function () {",
							"    pm.expect(pm.response.responseTime).to.be.below(2000);",
							"});"
						],
						"type": "text/javascript"
					}
				},
				{
					"listen": "prerequest",
					"script": {
						"id": "a45e0e83-f3f8-4699-95ca-8786b5b13455",
						"exec": [
							"var start = new Date();",
							"start.setHours(0,0,0,0);",
							"",
							"var epStart = new Date(start).getTime().toString();",
							"",
							"var startTime = epStart.substring(0,epStart.length-3);",
							"pm.variables.set(\"noticeStartTime\", startTime);",
							"",
							"console.log(\"noticeStartTime is \"+startTime);",
							"",
							"var x = 1; //or whatever offset",
							"var CurrentDate = new Date();",
							"CurrentDate.setMonth(CurrentDate.getMonth() + x);",
							"CurrentDate.setHours(0,0,0,0);",
							"var epEnd = new Date(CurrentDate).getTime().toString();",
							"var hideEndTime = epEnd.substring(0,epEnd.length-3);",
							"pm.variables.set(\"hideEndTime\", hideEndTime);",
							"console.log(\"hideEndTime\", hideEndTime);"
						],
						"type": "text/javascript"
					}
				}
			],
			"request": {
				"method": "POST",
				"header": [
					{
						"key": "roleId",
						"value": "{{roleId}}",
						"type": "text"
					},
					{
						"key": "token",
						"value": "{{token}}",
						"type": "text"
					}
				],
				"body": {
					"mode": "formdata",
					"formdata": [
						{
							"key": "applySuggestion",
							"value": "true",
							"type": "text"
						},
						{
							"key": "noticeStartTime",
							"value": "{{noticeStartTime}}",
							"type": "text"
						},
						{
							"key": "suggestion",
							"value": "{}",
							"type": "text"
						},
						{
							"key": "tenantId",
							"value": "5bbdc0b6f0c46973b68f2138",
							"type": "text"
						},
						{
							"key": "token",
							"value": "{{token}}",
							"type": "text"
						}
					]
				},
				"url": {
					"raw": "{{baseUrl}}v2/suppliers/putTenantOnNotice",
					"host": [
						"{{baseUrl}}v2"
					],
					"path": [
						"suppliers",
						"putTenantOnNotice"
					]
				}
			},
			"response": []
		},
		{
			"name": "extend-notice-status",
			"event": [
				{
					"listen": "test",
					"script": {
						"id": "ddf0c8d0-aefb-4b13-8210-9df7757e414f",
						"exec": [
							"var tokenValue, roleIDValue;",
							"var jsonData = JSON.parse(responseBody);",
							"tokenValue = jsonData.result[0].token;",
							"",
							"//roleIDValue = jsonData.result[0].roleCenters[1].roleId;",
							"",
							"console.log(\"After Updating token\"+tokenValue);",
							"//console.log(\"After Updating roleId\"+roleIDValue);",
							"",
							"postman.setEnvironmentVariable('token',tokenValue);",
							"//postman.setEnvironmentVariable('roleID',roleIDValue);",
							"",
							"",
							"var errorValue, roleIDValue;",
							"var jsonData = JSON.parse(responseBody);",
							"errorValue = jsonData.error;",
							"",
							"if(errorValue === 0)",
							"{",
							"    tests[\"Login API Works\"] = true;",
							"}",
							"else",
							"{",
							"    tests[\"Issue with Login API\"] = false;",
							"}",
							"",
							"",
							"tests[\"Status code  is 200 for Login API\"] = responseCode.code ==200;",
							"",
							"var message = jsonData.message;",
							"console.log(\"After Updating message :\"+message);",
							"",
							"",
							"",
							"pm.test(\"Response time is less than 2000ms for Login API\", function () {",
							"    pm.expect(pm.response.responseTime).to.be.below(2000);",
							"});"
						],
						"type": "text/javascript"
					}
				},
				{
					"listen": "prerequest",
					"script": {
						"id": "a45e0e83-f3f8-4699-95ca-8786b5b13455",
						"exec": [
							"var start = new Date();",
							"start.setHours(0,0,0,0);",
							"",
							"var epStart = new Date(start).getTime().toString();",
							"",
							"var startTime = epStart.substring(0,epStart.length-3);",
							"pm.variables.set(\"noticeStartTime\", startTime);",
							"",
							"console.log(\"noticeStartTime is \"+startTime);",
							"",
							"var x = 1; //or whatever offset",
							"var CurrentDate = new Date();",
							"CurrentDate.setMonth(CurrentDate.getMonth() + x);",
							"CurrentDate.setHours(0,0,0,0);",
							"var epEnd = new Date(CurrentDate).getTime().toString();",
							"var hideEndTime = epEnd.substring(0,epEnd.length-3);",
							"pm.variables.set(\"expectedDateOfVacancy\", hideEndTime);",
							"console.log(\"expectedDateOfVacancy\", hideEndTime);"
						],
						"type": "text/javascript"
					}
				}
			],
			"request": {
				"method": "POST",
				"header": [
					{
						"key": "roleId",
						"type": "text",
						"value": "{{roleId}}"
					},
					{
						"key": "token",
						"type": "text",
						"value": "{{token}}"
					}
				],
				"body": {
					"mode": "formdata",
					"formdata": [
						{
							"key": "applySuggestion",
							"value": "true",
							"type": "text"
						},
						{
							"key": "expectedDateOfVacancy",
							"value": "{{expectedDateOfVacancy}}",
							"type": "text"
						},
						{
							"key": "suggestion",
							"value": "{}",
							"type": "text"
						},
						{
							"key": "tenantId",
							"value": "5bbdc0b6f0c46973b68f2138",
							"type": "text"
						},
						{
							"key": "token",
							"value": "{{token}}",
							"type": "text"
						}
					]
				},
				"url": {
					"raw": "{{baseUrl}}api/v3/supplier/update_notice",
					"host": [
						"{{baseUrl}}api"
					],
					"path": [
						"v3",
						"supplier",
						"update_notice"
					]
				}
			},
			"response": []
		},
		{
			"name": "cancel-notice-status",
			"event": [
				{
					"listen": "test",
					"script": {
						"id": "ddf0c8d0-aefb-4b13-8210-9df7757e414f",
						"exec": [
							"var tokenValue, roleIDValue;",
							"var jsonData = JSON.parse(responseBody);",
							"tokenValue = jsonData.result[0].token;",
							"",
							"//roleIDValue = jsonData.result[0].roleCenters[1].roleId;",
							"",
							"console.log(\"After Updating token\"+tokenValue);",
							"//console.log(\"After Updating roleId\"+roleIDValue);",
							"",
							"postman.setEnvironmentVariable('token',tokenValue);",
							"//postman.setEnvironmentVariable('roleID',roleIDValue);",
							"",
							"",
							"var errorValue, roleIDValue;",
							"var jsonData = JSON.parse(responseBody);",
							"errorValue = jsonData.error;",
							"",
							"if(errorValue === 0)",
							"{",
							"    tests[\"Login API Works\"] = true;",
							"}",
							"else",
							"{",
							"    tests[\"Issue with Login API\"] = false;",
							"}",
							"",
							"",
							"tests[\"Status code  is 200 for Login API\"] = responseCode.code ==200;",
							"",
							"var message = jsonData.message;",
							"console.log(\"After Updating message :\"+message);",
							"",
							"",
							"",
							"pm.test(\"Response time is less than 2000ms for Login API\", function () {",
							"    pm.expect(pm.response.responseTime).to.be.below(2000);",
							"});"
						],
						"type": "text/javascript"
					}
				},
				{
					"listen": "prerequest",
					"script": {
						"id": "a45e0e83-f3f8-4699-95ca-8786b5b13455",
						"exec": [
							"var start = new Date();",
							"start.setHours(0,0,0,0);",
							"",
							"var epStart = new Date(start).getTime().toString();",
							"",
							"var startTime = epStart.substring(0,epStart.length-3);",
							"pm.variables.set(\"noticeStartTime\", startTime);",
							"",
							"console.log(\"noticeStartTime is \"+startTime);",
							"",
							"var x = 1; //or whatever offset",
							"var CurrentDate = new Date();",
							"CurrentDate.setMonth(CurrentDate.getMonth() + x);",
							"CurrentDate.setHours(0,0,0,0);",
							"var epEnd = new Date(CurrentDate).getTime().toString();",
							"var hideEndTime = epEnd.substring(0,epEnd.length-3);",
							"pm.variables.set(\"expectedDateOfVacancy\", hideEndTime);",
							"console.log(\"expectedDateOfVacancy\", hideEndTime);"
						],
						"type": "text/javascript"
					}
				}
			],
			"request": {
				"method": "POST",
				"header": [
					{
						"key": "roleId",
						"type": "text",
						"value": "{{roleId}}"
					},
					{
						"key": "token",
						"type": "text",
						"value": "{{token}}"
					}
				],
				"body": {
					"mode": "formdata",
					"formdata": [
						{
							"key": "applySuggestion",
							"value": "true",
							"type": "text"
						},
						{
							"key": "suggestion",
							"value": "{}",
							"type": "text"
						},
						{
							"key": "tenantId",
							"value": "5bbdc0b6f0c46973b68f2138",
							"type": "text"
						},
						{
							"key": "token",
							"value": "{{token}}",
							"type": "text"
						}
					]
				},
				"url": {
					"raw": "{{baseUrl}}api/v3/supplier/cancel_notice",
					"host": [
						"{{baseUrl}}api"
					],
					"path": [
						"v3",
						"supplier",
						"cancel_notice"
					]
				}
			},
			"response": []
		}
	]
}